{
	"name": "PhpTags Functions",
	"version": "3.8",
	"author": "[https://www.mediawiki.org/wiki/User:Pastakhov Pavel Astakhov]",
	"url": "https://www.mediawiki.org/wiki/Extension:PhpTags_Functions",
	"descriptionmsg": "phptagsfunctions-desc",
	"license-name": "GPL-2.0+",
	"type": "phptags",
	"MessagesDirs": {
		"PhpTagsFunctions": [
			"i18n"
		]
	},
	"AutoloadClasses": {
		"PhpTagsFunctionsHooks": "PhpTagsFunctions.hooks.php",
		"PhpTagsObjects\\PhpTagsFunc": "includes/PhpTagsFunc.php",
		"PhpTagsObjects\\PhpTagsFuncUseful": "includes/PhpTagsFuncUseful.php",
		"PhpTagsObjects\\PhpTagsFuncNativeObject": "includes/PhpTagsFuncNativeObject.php",
		"PhpTagsObjects\\PhpTagsFuncDatePeriod": "includes/PhpTagsFuncDatePeriod.php",
		"PhpTagsObjects\\PhpTagsWebRequest": "includes/PhpTagsWebRequest.php"
	},
	"Hooks": {
		"ParserFirstCallInit": "PhpTagsFunctionsHooks::onParserFirstCallInit",
		"PhpTagsRuntimeFirstInit": "PhpTagsFunctionsHooks::onPhpTagsRuntimeFirstInit",
		"UnitTestsList": "PhpTagsFunctionsHooks::onUnitTestsList"
	},
	"ParserTestFiles": [
		"tests/parser/PhpTagsFunctionsTests.txt"
	],
	"manifest_version": 1
}
